{
  "msg": "",
  "obj": {
    "clazz": null,
    "firstPage": true,
    "firstResult": 0,
    "footer": [],
    "lastPage": false,
    "list": [
      {
        "badNews": "",
        "createDate": {
          "date": 6,
          "day": 5,
          "hours": 15,
          "minutes": 39,
          "month": 6,
          "seconds": 20,
          "time": 1530862760000,
          "timezoneOffset": -480,
          "year": 118
        },
        "gbtype": "",
        "goodNews": "",
        "id": 53797,
        "introduction": "{\"text\":\"Japanese Man Exploits Free Company Electricity to Make $500 Secondary Income Mining <a href=\\\"https://t.co/T5N7S6Bkcd\\\" class=\\\"wb-text-link\\\" target=\\\"_blank\\\">https://t.co/T5N7S6Bkcd<\\/a> #Bitcoin <a href=\\\"https://t.co/wD9EfAUKbe\\\" class=\\\"wb-text-link\\\" target=\\\"_blank\\\">https://t.co/wD9EfAUKbe<\\/a>\",\"date\":{\"date\":6,\"day\":5,\"hours\":15,\"minutes\":39,\"month\":6,\"seconds\":20,\"time\":1530862760000,\"timezoneOffset\":-480,\"year\":118},\"icon\":\"https://pbs.twimg.com/profile_images/692197905265004545/ItJpuaN1_normal.png\",\"favoriteCount\":3,\"retweetCount\":1,\"name\":\"Bitcoin News\",\"screenName\":\"BTCTN\",\"url\":\"https://t.co/T5N7S6Bkcd\",\"mediaUrls\":\"http://pbs.twimg.com/media/DhZ-u2lX0AAeHhM.jpg\",\"yinyong\":\"\",\"zhuanfa\":\"\"}",
        "isNeedpush": 0,
        "lastUpdateDate": {
          "date": 6,
          "day": 5,
          "hours": 15,
          "minutes": 39,
          "month": 6,
          "seconds": 20,
          "time": 1530862760000,
          "timezoneOffset": -480,
          "year": 118
        },
        "pushStatus": 0,
        "relativeDate": "07-06 15:39",
        "status": 0,
        "subIntroduction": "【】{\"text\":\"Japanese Man Exploits Free Company Electricity to Make $500 Secondar ...",
        "sumCount": 48,
        "timeDate": "20180706",
        "timeDateStr": "2018年7月6日 星期五",
        "title": "",
        "url": "",
        "version": 1,
        "webName": ""
      },
      {
        "badNews": "",
        "createDate": {
          "date": 6,
          "day": 5,
          "hours": 15,
          "minutes": 8,
          "month": 6,
          "seconds": 30,
          "time": 1530860910000,
          "timezoneOffset": -480,
          "year": 118
        },
        "gbtype": "",
        "goodNews": "",
        "id": 53798,
        "introduction": "{\"text\":\"JUST IN: MakerDAO Pilots Stablecoin With TradeShift to Speed Up Payments <a href=\\\"https://t.co/FA0fG9ZBaX\\\" class=\\\"wb-text-link\\\" target=\\\"_blank\\\">https://t.co/FA0fG9ZBaX<\\/a> <a href=\\\"https://t.co/lPk3n5F1Sz\\\" class=\\\"wb-text-link\\\" target=\\\"_blank\\\">https://t.co/lPk3n5F1Sz<\\/a>\",\"date\":{\"date\":6,\"day\":5,\"hours\":15,\"minutes\":8,\"month\":6,\"seconds\":30,\"time\":1530860910000,\"timezoneOffset\":-480,\"year\":118},\"icon\":\"https://pbs.twimg.com/profile_images/875399204218126339/W3zmmuWz_normal.jpg\",\"favoriteCount\":29,\"retweetCount\":19,\"name\":\"CoinDesk\",\"screenName\":\"coindesk\",\"url\":\"https://t.co/FA0fG9ZBaX\",\"mediaUrls\":\"http://pbs.twimg.com/media/DhZ3rIDX4AE0Piz.jpg\",\"yinyong\":\"\",\"zhuanfa\":\"\"}",
        "isNeedpush": 0,
        "lastUpdateDate": {
          "date": 6,
          "day": 5,
          "hours": 15,
          "minutes": 8,
          "month": 6,
          "seconds": 30,
          "time": 1530860910000,
          "timezoneOffset": -480,
          "year": 118
        },
        "pushStatus": 0,
        "relativeDate": "07-06 15:08",
        "status": 0,
        "subIntroduction": "【】{\"text\":\"JUST IN: MakerDAO Pilots Stablecoin With TradeShift to Speed Up Paym ...",
        "sumCount": 48,
        "timeDate": "20180706",
        "timeDateStr": "2018年7月6日 星期五",
        "title": "",
        "url": "",
        "version": 1,
        "webName": ""
      },
      {
        "badNews": "",
        "createDate": {
          "date": 6,
          "day": 5,
          "hours": 14,
          "minutes": 37,
          "month": 6,
          "seconds": 39,
          "time": 1530859059000,
          "timezoneOffset": -480,
          "year": 118
        },
        "gbtype": "",
        "goodNews": "",
        "id": 53799,
        "introduction": "{\"text\":\"Report: Mining Giant Bitmain Valued at $12 Billion in New Funding Round <a href=\\\"https://t.co/K4hU5SZuAj\\\" class=\\\"wb-text-link\\\" target=\\\"_blank\\\">https://t.co/K4hU5SZuAj<\\/a> <a href=\\\"https://t.co/GxGkB7jVbU\\\" class=\\\"wb-text-link\\\" target=\\\"_blank\\\">https://t.co/GxGkB7jVbU<\\/a>\",\"date\":{\"date\":6,\"day\":5,\"hours\":14,\"minutes\":37,\"month\":6,\"seconds\":39,\"time\":1530859059000,\"timezoneOffset\":-480,\"year\":118},\"icon\":\"https://pbs.twimg.com/profile_images/875399204218126339/W3zmmuWz_normal.jpg\",\"favoriteCount\":66,\"retweetCount\":41,\"name\":\"CoinDesk\",\"screenName\":\"coindesk\",\"url\":\"https://t.co/K4hU5SZuAj\",\"mediaUrls\":\"http://pbs.twimg.com/media/DhZwnLeXUAAgqxo.jpg\",\"yinyong\":\"\",\"zhuanfa\":\"\"}",
        "isNeedpush": 0,
        "lastUpdateDate": {
          "date": 6,
          "day": 5,
          "hours": 14,
          "minutes": 37,
          "month": 6,
          "seconds": 39,
          "time": 1530859059000,
          "timezoneOffset": -480,
          "year": 118
        },
        "pushStatus": 0,
        "relativeDate": "07-06 14:37",
        "status": 0,
        "subIntroduction": "【】{\"text\":\"Report: Mining Giant Bitmain Valued at $12 Billion in New Funding Ro ...",
        "sumCount": 48,
        "timeDate": "20180706",
        "timeDateStr": "2018年7月6日 星期五",
        "title": "",
        "url": "",
        "version": 1,
        "webName": ""
      },
      {
        "badNews": "",
        "createDate": {
          "date": 6,
          "day": 5,
          "hours": 14,
          "minutes": 30,
          "month": 6,
          "seconds": 22,
          "time": 1530858622000,
          "timezoneOffset": -480,
          "year": 118
        },
        "gbtype": "",
        "goodNews": "",
        "id": 53800,
        "introduction": "{\"text\":\"This British investing pundit forecasts bitcoin returning to $20,000 ... or even soaring to $100,000, via… <a href=\\\"https://t.co/qT3OUYetrf\\\" class=\\\"wb-text-link\\\" target=\\\"_blank\\\">https://t.co/qT3OUYetrf<\\/a>\",\"date\":{\"date\":6,\"day\":5,\"hours\":14,\"minutes\":30,\"month\":6,\"seconds\":22,\"time\":1530858622000,\"timezoneOffset\":-480,\"year\":118},\"icon\":\"https://pbs.twimg.com/profile_images/875399204218126339/W3zmmuWz_normal.jpg\",\"favoriteCount\":202,\"retweetCount\":108,\"name\":\"CoinDesk\",\"screenName\":\"coindesk\",\"url\":\"https://t.co/qT3OUYetrf\",\"yinyong\":\"\",\"zhuanfa\":\"\"}",
        "isNeedpush": 0,
        "lastUpdateDate": {
          "date": 6,
          "day": 5,
          "hours": 14,
          "minutes": 30,
          "month": 6,
          "seconds": 22,
          "time": 1530858622000,
          "timezoneOffset": -480,
          "year": 118
        },
        "pushStatus": 0,
        "relativeDate": "07-06 14:30",
        "status": 0,
        "subIntroduction": "【】{\"text\":\"This British investing pundit forecasts bitcoin returning to $20,000 ...",
        "sumCount": 48,
        "timeDate": "20180706",
        "timeDateStr": "2018年7月6日 星期五",
        "title": "",
        "url": "",
        "version": 1,
        "webName": ""
      },
      {
        "badNews": "",
        "createDate": {
          "date": 6,
          "day": 5,
          "hours": 14,
          "minutes": 21,
          "month": 6,
          "seconds": 19,
          "time": 1530858079000,
          "timezoneOffset": -480,
          "year": 118
        },
        "gbtype": "",
        "goodNews": "",
        "id": 53793,
        "introduction": "{\"text\":\"India’s Ruling Political Party Allegedly Involved in $763 Million Bitcoin Scam: Report <a href=\\\"https://t.co/BP2z25egLt\\\" class=\\\"wb-text-link\\\" target=\\\"_blank\\\">https://t.co/BP2z25egLt<\\/a>\",\"date\":{\"date\":6,\"day\":5,\"hours\":14,\"minutes\":21,\"month\":6,\"seconds\":19,\"time\":1530858079000,\"timezoneOffset\":-480,\"year\":118},\"icon\":\"https://pbs.twimg.com/profile_images/942304759561768960/Gel04P4M_normal.jpg\",\"favoriteCount\":32,\"retweetCount\":24,\"name\":\"CCN\",\"screenName\":\"CryptoCoinsNews\",\"url\":\"https://t.co/BP2z25egLt\",\"yinyong\":\"\",\"zhuanfa\":\"\"}",
        "isNeedpush": 0,
        "lastUpdateDate": {
          "date": 6,
          "day": 5,
          "hours": 14,
          "minutes": 21,
          "month": 6,
          "seconds": 19,
          "time": 1530858079000,
          "timezoneOffset": -480,
          "year": 118
        },
        "pushStatus": 0,
        "relativeDate": "07-06 14:21",
        "status": 0,
        "subIntroduction": "【】{\"text\":\"India’s Ruling Political Party Allegedly Involved in $763 Million Bi ...",
        "sumCount": 48,
        "timeDate": "20180706",
        "timeDateStr": "2018年7月6日 星期五",
        "title": "",
        "url": "",
        "version": 1,
        "webName": ""
      },
      {
        "badNews": "",
        "createDate": {
          "date": 6,
          "day": 5,
          "hours": 13,
          "minutes": 5,
          "month": 6,
          "seconds": 41,
          "time": 1530853541000,
          "timezoneOffset": -480,
          "year": 118
        },
        "gbtype": "",
        "goodNews": "",
        "id": 53802,
        "introduction": "{\"text\":\"RT @ABC: Stunning drone footage shows a massive baby blue whale swimming right under and around a whale-watcher's boat. <a href=\\\"https://t.co/mDqypI…\\\" class=\\\"wb-text-link\\\" target=\\\"_blank\\\">https://t.co/mDqypI…<\\/a>\",\"date\":{\"date\":6,\"day\":5,\"hours\":13,\"minutes\":5,\"month\":6,\"seconds\":41,\"time\":1530853541000,\"timezoneOffset\":-480,\"year\":118},\"icon\":\"https://pbs.twimg.com/profile_images/590549326981640193/l3cPYHPx_normal.png\",\"favoriteCount\":0,\"retweetCount\":1968,\"name\":\"Tony Gallippi\",\"screenName\":\"TonyGallippi\",\"yinyong\":\"\",\"zhuanfa\":{\"text\":\"Stunning drone footage shows a massive baby blue whale swimming right under and around a whale-watcher's boat.… <a href=\\\"https://t.co/GXhz4NeAYb\\\" class=\\\"wb-text-link\\\" target=\\\"_blank\\\">https://t.co/GXhz4NeAYb<\\/a>\",\"date\":{\"date\":6,\"day\":5,\"hours\":10,\"minutes\":6,\"month\":6,\"seconds\":7,\"time\":1530842767000,\"timezoneOffset\":-480,\"year\":118},\"icon\":\"https://pbs.twimg.com/profile_images/877547979363758080/ny06RNTT_normal.jpg\",\"favoriteCount\":5889,\"retweetCount\":1968,\"name\":\"ABC News\",\"screenName\":\"ABC\",\"url\":\"https://t.co/GXhz4NeAYb\"}}",
        "isNeedpush": 0,
        "lastUpdateDate": {
          "date": 6,
          "day": 5,
          "hours": 13,
          "minutes": 5,
          "month": 6,
          "seconds": 41,
          "time": 1530853541000,
          "timezoneOffset": -480,
          "year": 118
        },
        "pushStatus": 0,
        "relativeDate": "07-06 13:05",
        "status": 0,
        "subIntroduction": "【】{\"text\":\"RT @ABC: Stunning drone footage shows a massive baby blue whale swim ...",
        "sumCount": 48,
        "timeDate": "20180706",
        "timeDateStr": "2018年7月6日 星期五",
        "title": "",
        "url": "",
        "version": 1,
        "webName": ""
      },
      {
        "badNews": "",
        "createDate": {
          "date": 6,
          "day": 5,
          "hours": 12,
          "minutes": 34,
          "month": 6,
          "seconds": 10,
          "time": 1530851650000,
          "timezoneOffset": -480,
          "year": 118
        },
        "gbtype": "",
        "goodNews": "",
        "id": 53764,
        "introduction": "{\"text\":\"Thailand Officially Announces Rules for Token Issuers, Portals, and Investors <a href=\\\"https://t.co/BkkSQ5812e\\\" class=\\\"wb-text-link\\\" target=\\\"_blank\\\">https://t.co/BkkSQ5812e<\\/a> #Bitcoin <a href=\\\"https://t.co/od2Etf9ItA\\\" class=\\\"wb-text-link\\\" target=\\\"_blank\\\">https://t.co/od2Etf9ItA<\\/a>\",\"date\":{\"date\":6,\"day\":5,\"hours\":12,\"minutes\":34,\"month\":6,\"seconds\":10,\"time\":1530851650000,\"timezoneOffset\":-480,\"year\":118},\"icon\":\"https://pbs.twimg.com/profile_images/692197905265004545/ItJpuaN1_normal.png\",\"favoriteCount\":43,\"retweetCount\":36,\"name\":\"Bitcoin News\",\"screenName\":\"BTCTN\",\"url\":\"https://t.co/BkkSQ5812e\",\"mediaUrls\":\"http://pbs.twimg.com/media/DhZUWY7W0AU0hWS.jpg\",\"yinyong\":\"\",\"zhuanfa\":\"\"}",
        "isNeedpush": 0,
        "lastUpdateDate": {
          "date": 6,
          "day": 5,
          "hours": 12,
          "minutes": 34,
          "month": 6,
          "seconds": 10,
          "time": 1530851650000,
          "timezoneOffset": -480,
          "year": 118
        },
        "pushStatus": 0,
        "relativeDate": "07-06 12:34",
        "status": 0,
        "subIntroduction": "【】{\"text\":\"Thailand Officially Announces Rules for Token Issuers, Portals, and  ...",
        "sumCount": 48,
        "timeDate": "20180706",
        "timeDateStr": "2018年7月6日 星期五",
        "title": "",
        "url": "",
        "version": 1,
        "webName": ""
      },
      {
        "badNews": "",
        "createDate": {
          "date": 6,
          "day": 5,
          "hours": 12,
          "minutes": 31,
          "month": 6,
          "seconds": 38,
          "time": 1530851498000,
          "timezoneOffset": -480,
          "year": 118
        },
        "gbtype": "",
        "goodNews": "",
        "id": 53765,
        "introduction": "{\"text\":\"In a recent brainstorming session, I have identified over 100 innovative fields for #blockchain. 1 of them is… <a href=\\\"https://t.co/yqvOj9wEjZ\\\" class=\\\"wb-text-link\\\" target=\\\"_blank\\\">https://t.co/yqvOj9wEjZ<\\/a>\",\"date\":{\"date\":6,\"day\":5,\"hours\":12,\"minutes\":31,\"month\":6,\"seconds\":38,\"time\":1530851498000,\"timezoneOffset\":-480,\"year\":118},\"icon\":\"https://pbs.twimg.com/profile_images/873742229231124480/MU1xZqTg_normal.jpg\",\"favoriteCount\":29,\"retweetCount\":5,\"name\":\"Dr. Julian Hosp\",\"screenName\":\"julianhosp\",\"url\":\"https://t.co/yqvOj9wEjZ\",\"yinyong\":\"\",\"zhuanfa\":\"\"}",
        "isNeedpush": 0,
        "lastUpdateDate": {
          "date": 6,
          "day": 5,
          "hours": 12,
          "minutes": 31,
          "month": 6,
          "seconds": 38,
          "time": 1530851498000,
          "timezoneOffset": -480,
          "year": 118
        },
        "pushStatus": 0,
        "relativeDate": "07-06 12:31",
        "status": 0,
        "subIntroduction": "【】{\"text\":\"In a recent brainstorming session, I have identified over 100 innova ...",
        "sumCount": 48,
        "timeDate": "20180706",
        "timeDateStr": "2018年7月6日 星期五",
        "title": "",
        "url": "",
        "version": 1,
        "webName": ""
      },
      {
        "badNews": "",
        "createDate": {
          "date": 6,
          "day": 5,
          "hours": 10,
          "minutes": 39,
          "month": 6,
          "seconds": 44,
          "time": 1530844784000,
          "timezoneOffset": -480,
          "year": 118
        },
        "gbtype": "",
        "goodNews": "",
        "id": 53671,
        "introduction": "{\"text\":\"India's Ruling Party Accused of Involvement in 'Mega Bitcoin Scam' <a href=\\\"https://t.co/p8kJrF9cbT\\\" class=\\\"wb-text-link\\\" target=\\\"_blank\\\">https://t.co/p8kJrF9cbT<\\/a> <a href=\\\"https://t.co/ZQbbvGzu7g\\\" class=\\\"wb-text-link\\\" target=\\\"_blank\\\">https://t.co/ZQbbvGzu7g<\\/a>\",\"date\":{\"date\":6,\"day\":5,\"hours\":10,\"minutes\":39,\"month\":6,\"seconds\":44,\"time\":1530844784000,\"timezoneOffset\":-480,\"year\":118},\"icon\":\"https://pbs.twimg.com/profile_images/875399204218126339/W3zmmuWz_normal.jpg\",\"favoriteCount\":12,\"retweetCount\":14,\"name\":\"CoinDesk\",\"screenName\":\"coindesk\",\"url\":\"https://t.co/p8kJrF9cbT\",\"mediaUrls\":\"http://pbs.twimg.com/media/DhY6J_7W4AI8BQf.jpg\",\"yinyong\":\"\",\"zhuanfa\":\"\"}",
        "isNeedpush": 0,
        "lastUpdateDate": {
          "date": 6,
          "day": 5,
          "hours": 10,
          "minutes": 39,
          "month": 6,
          "seconds": 44,
          "time": 1530844784000,
          "timezoneOffset": -480,
          "year": 118
        },
        "pushStatus": 0,
        "relativeDate": "07-06 10:39",
        "status": 0,
        "subIntroduction": "【】{\"text\":\"India's Ruling Party Accused of Involvement in 'Mega Bitcoin Scam' < ...",
        "sumCount": 48,
        "timeDate": "20180706",
        "timeDateStr": "2018年7月6日 星期五",
        "title": "",
        "url": "",
        "version": 1,
        "webName": ""
      },
      {
        "badNews": "",
        "createDate": {
          "date": 6,
          "day": 5,
          "hours": 10,
          "minutes": 39,
          "month": 6,
          "seconds": 37,
          "time": 1530844777000,
          "timezoneOffset": -480,
          "year": 118
        },
        "gbtype": "",
        "goodNews": "",
        "id": 53672,
        "introduction": "{\"text\":\"RT @starkness: That feeling when the Bank of International Settlements tells you to stop writing code because, well, only central banks can…\",\"date\":{\"date\":6,\"day\":5,\"hours\":10,\"minutes\":39,\"month\":6,\"seconds\":37,\"time\":1530844777000,\"timezoneOffset\":-480,\"year\":118},\"icon\":\"https://pbs.twimg.com/profile_images/974516605089603584/QFvlh7qq_normal.jpg\",\"favoriteCount\":0,\"retweetCount\":104,\"name\":\"Charlie Lee [LTC⚡]\",\"screenName\":\"SatoshiLite\",\"yinyong\":\"\",\"zhuanfa\":{\"text\":\"That feeling when the Bank of International Settlements tells you to stop writing code because, well, only central… <a href=\\\"https://t.co/giDiFgDtxO\\\" class=\\\"wb-text-link\\\" target=\\\"_blank\\\">https://t.co/giDiFgDtxO<\\/a>\",\"date\":{\"date\":6,\"day\":5,\"hours\":9,\"minutes\":35,\"month\":6,\"seconds\":1,\"time\":1530840901000,\"timezoneOffset\":-480,\"year\":118},\"icon\":\"https://pbs.twimg.com/profile_images/1974819036/stark.4_normal.jpg\",\"favoriteCount\":429,\"retweetCount\":104,\"name\":\"elizabeth stark\",\"screenName\":\"starkness\",\"url\":\"https://t.co/giDiFgDtxO\"}}",
        "isNeedpush": 0,
        "lastUpdateDate": {
          "date": 6,
          "day": 5,
          "hours": 10,
          "minutes": 39,
          "month": 6,
          "seconds": 37,
          "time": 1530844777000,
          "timezoneOffset": -480,
          "year": 118
        },
        "pushStatus": 0,
        "relativeDate": "07-06 10:39",
        "status": 0,
        "subIntroduction": "【】{\"text\":\"RT @starkness: That feeling when the Bank of International Settlemen ...",
        "sumCount": 48,
        "timeDate": "20180706",
        "timeDateStr": "2018年7月6日 星期五",
        "title": "",
        "url": "",
        "version": 1,
        "webName": ""
      },
      {
        "badNews": "",
        "createDate": {
          "date": 6,
          "day": 5,
          "hours": 10,
          "minutes": 34,
          "month": 6,
          "seconds": 50,
          "time": 1530844490000,
          "timezoneOffset": -480,
          "year": 118
        },
        "gbtype": "",
        "goodNews": "",
        "id": 53669,
        "introduction": "{\"text\":\"Switzerland Considers Granting Crypto Businesses Access to Banking Services <a href=\\\"https://t.co/aLb2vvuFhw\\\" class=\\\"wb-text-link\\\" target=\\\"_blank\\\">https://t.co/aLb2vvuFhw<\\/a> #Bitcoin <a href=\\\"https://t.co/bSDhHhNSFH\\\" class=\\\"wb-text-link\\\" target=\\\"_blank\\\">https://t.co/bSDhHhNSFH<\\/a>\",\"date\":{\"date\":6,\"day\":5,\"hours\":10,\"minutes\":34,\"month\":6,\"seconds\":50,\"time\":1530844490000,\"timezoneOffset\":-480,\"year\":118},\"icon\":\"https://pbs.twimg.com/profile_images/692197905265004545/ItJpuaN1_normal.png\",\"favoriteCount\":12,\"retweetCount\":3,\"name\":\"Bitcoin News\",\"screenName\":\"BTCTN\",\"url\":\"https://t.co/aLb2vvuFhw\",\"mediaUrls\":\"http://pbs.twimg.com/media/DhY5CUrXkAAJ-Yr.jpg\",\"yinyong\":\"\",\"zhuanfa\":\"\"}",
        "isNeedpush": 0,
        "lastUpdateDate": {
          "date": 6,
          "day": 5,
          "hours": 10,
          "minutes": 34,
          "month": 6,
          "seconds": 50,
          "time": 1530844490000,
          "timezoneOffset": -480,
          "year": 118
        },
        "pushStatus": 0,
        "relativeDate": "07-06 10:34",
        "status": 0,
        "subIntroduction": "【】{\"text\":\"Switzerland Considers Granting Crypto Businesses Access to Banking S ...",
        "sumCount": 48,
        "timeDate": "20180706",
        "timeDateStr": "2018年7月6日 星期五",
        "title": "",
        "url": "",
        "version": 1,
        "webName": ""
      },
      {
        "badNews": "",
        "createDate": {
          "date": 6,
          "day": 5,
          "hours": 9,
          "minutes": 46,
          "month": 6,
          "seconds": 34,
          "time": 1530841594000,
          "timezoneOffset": -480,
          "year": 118
        },
        "gbtype": "",
        "goodNews": "",
        "id": 53658,
        "introduction": "{\"text\":\"RT @saifedean: If you're trying to gain people's trust, maybe try something other than telling them they have no substitute to trusting you…\",\"date\":{\"date\":6,\"day\":5,\"hours\":9,\"minutes\":46,\"month\":6,\"seconds\":34,\"time\":1530841594000,\"timezoneOffset\":-480,\"year\":118},\"icon\":\"https://pbs.twimg.com/profile_images/1013720836514119680/dq9xwPqT_normal.jpg\",\"favoriteCount\":0,\"retweetCount\":1,\"name\":\"Bruce Fenton\",\"screenName\":\"brucefenton\",\"yinyong\":\"\",\"zhuanfa\":{\"text\":\"If you're trying to gain people's trust, maybe try something other than telling them they have no substitute to tru… <a href=\\\"https://t.co/Eyl3TwSa2Q\\\" class=\\\"wb-text-link\\\" target=\\\"_blank\\\">https://t.co/Eyl3TwSa2Q<\\/a>\",\"date\":{\"date\":6,\"day\":5,\"hours\":9,\"minutes\":45,\"month\":6,\"seconds\":44,\"time\":1530841544000,\"timezoneOffset\":-480,\"year\":118},\"icon\":\"https://pbs.twimg.com/profile_images/628519734766518272/Kv9kMN54_normal.jpg\",\"favoriteCount\":5,\"retweetCount\":1,\"name\":\"Saifedean Ammous\",\"screenName\":\"saifedean\",\"url\":\"https://t.co/Eyl3TwSa2Q\"}}",
        "isNeedpush": 0,
        "lastUpdateDate": {
          "date": 6,
          "day": 5,
          "hours": 9,
          "minutes": 46,
          "month": 6,
          "seconds": 34,
          "time": 1530841594000,
          "timezoneOffset": -480,
          "year": 118
        },
        "pushStatus": 0,
        "relativeDate": "07-06 09:46",
        "status": 0,
        "subIntroduction": "【】{\"text\":\"RT @saifedean: If you're trying to gain people's trust, maybe try so ...",
        "sumCount": 48,
        "timeDate": "20180706",
        "timeDateStr": "2018年7月6日 星期五",
        "title": "",
        "url": "",
        "version": 1,
        "webName": ""
      },
      {
        "badNews": "",
        "createDate": {
          "date": 6,
          "day": 5,
          "hours": 9,
          "minutes": 43,
          "month": 6,
          "seconds": 12,
          "time": 1530841392000,
          "timezoneOffset": -480,
          "year": 118
        },
        "gbtype": "",
        "goodNews": "",
        "id": 53659,
        "introduction": "{\"text\":\"POWX: The New Effort to Change Bitcoin (And Who's Backing It) <a href=\\\"https://t.co/2FI3stI6HL\\\" class=\\\"wb-text-link\\\" target=\\\"_blank\\\">https://t.co/2FI3stI6HL<\\/a> <a href=\\\"https://t.co/TWcc20KAsx\\\" class=\\\"wb-text-link\\\" target=\\\"_blank\\\">https://t.co/TWcc20KAsx<\\/a>\",\"date\":{\"date\":6,\"day\":5,\"hours\":9,\"minutes\":43,\"month\":6,\"seconds\":12,\"time\":1530841392000,\"timezoneOffset\":-480,\"year\":118},\"icon\":\"https://pbs.twimg.com/profile_images/875399204218126339/W3zmmuWz_normal.jpg\",\"favoriteCount\":7,\"retweetCount\":4,\"name\":\"CoinDesk\",\"screenName\":\"coindesk\",\"url\":\"https://t.co/2FI3stI6HL\",\"mediaUrls\":\"http://pbs.twimg.com/media/DhYtN9yWsAI2dPb.jpg\",\"yinyong\":\"\",\"zhuanfa\":\"\"}",
        "isNeedpush": 0,
        "lastUpdateDate": {
          "date": 6,
          "day": 5,
          "hours": 9,
          "minutes": 43,
          "month": 6,
          "seconds": 12,
          "time": 1530841392000,
          "timezoneOffset": -480,
          "year": 118
        },
        "pushStatus": 0,
        "relativeDate": "07-06 09:43",
        "status": 0,
        "subIntroduction": "【】{\"text\":\"POWX: The New Effort to Change Bitcoin (And Who's Backing It) <a hre ...",
        "sumCount": 48,
        "timeDate": "20180706",
        "timeDateStr": "2018年7月6日 星期五",
        "title": "",
        "url": "",
        "version": 1,
        "webName": ""
      },
      {
        "badNews": "",
        "createDate": {
          "date": 6,
          "day": 5,
          "hours": 9,
          "minutes": 30,
          "month": 6,
          "seconds": 4,
          "time": 1530840604000,
          "timezoneOffset": -480,
          "year": 118
        },
        "gbtype": "",
        "goodNews": "",
        "id": 53655,
        "introduction": "{\"text\":\"India had been a booming market for crypto — until it started to choke the industry, an overview by @qzindia… <a href=\\\"https://t.co/Zxw8dP86Ve\\\" class=\\\"wb-text-link\\\" target=\\\"_blank\\\">https://t.co/Zxw8dP86Ve<\\/a>\",\"date\":{\"date\":6,\"day\":5,\"hours\":9,\"minutes\":30,\"month\":6,\"seconds\":4,\"time\":1530840604000,\"timezoneOffset\":-480,\"year\":118},\"icon\":\"https://pbs.twimg.com/profile_images/875399204218126339/W3zmmuWz_normal.jpg\",\"favoriteCount\":14,\"retweetCount\":8,\"name\":\"CoinDesk\",\"screenName\":\"coindesk\",\"url\":\"https://t.co/Zxw8dP86Ve\",\"yinyong\":\"\",\"zhuanfa\":\"\"}",
        "isNeedpush": 0,
        "lastUpdateDate": {
          "date": 6,
          "day": 5,
          "hours": 9,
          "minutes": 30,
          "month": 6,
          "seconds": 4,
          "time": 1530840604000,
          "timezoneOffset": -480,
          "year": 118
        },
        "pushStatus": 0,
        "relativeDate": "07-06 09:30",
        "status": 0,
        "subIntroduction": "【】{\"text\":\"India had been a booming market for crypto — until it started to cho ...",
        "sumCount": 48,
        "timeDate": "20180706",
        "timeDateStr": "2018年7月6日 星期五",
        "title": "",
        "url": "",
        "version": 1,
        "webName": ""
      },
      {
        "badNews": "",
        "createDate": {
          "date": 6,
          "day": 5,
          "hours": 9,
          "minutes": 15,
          "month": 6,
          "seconds": 13,
          "time": 1530839713000,
          "timezoneOffset": -480,
          "year": 118
        },
        "gbtype": "",
        "goodNews": "",
        "id": 53649,
        "introduction": "{\"text\":\"Awesome to be supporting Choon and @garethemery ! Check out the episodes there: <a href=\\\"https://t.co/dGNZ59Gjlt\\\" class=\\\"wb-text-link\\\" target=\\\"_blank\\\">https://t.co/dGNZ59Gjlt<\\/a> <a href=\\\"https://t.co/Vv7axepjhM\\\" class=\\\"wb-text-link\\\" target=\\\"_blank\\\">https://t.co/Vv7axepjhM<\\/a>\",\"date\":{\"date\":6,\"day\":5,\"hours\":9,\"minutes\":15,\"month\":6,\"seconds\":13,\"time\":1530839713000,\"timezoneOffset\":-480,\"year\":118},\"icon\":\"https://pbs.twimg.com/profile_images/873742229231124480/MU1xZqTg_normal.jpg\",\"favoriteCount\":1,\"retweetCount\":0,\"name\":\"Dr. Julian Hosp\",\"screenName\":\"julianhosp\",\"url\":\"https://t.co/Vv7axepjhM\",\"yinyong\":{\"text\":\"Listen and learn from one of the smartest people in the #blockchain  space. #Choon welcomes the @julianhosp podcast… <a href=\\\"https://t.co/FM2QmTv0aJ\\\" class=\\\"wb-text-link\\\" target=\\\"_blank\\\">https://t.co/FM2QmTv0aJ<\\/a>\",\"date\":{\"date\":6,\"day\":5,\"hours\":1,\"minutes\":41,\"month\":6,\"seconds\":19,\"time\":1530812479000,\"timezoneOffset\":-480,\"year\":118},\"icon\":\"https://pbs.twimg.com/profile_images/996141559857856512/1EKAqlVo_normal.jpg\",\"favoriteCount\":21,\"retweetCount\":3,\"name\":\"Choon\",\"screenName\":\"choonhq\",\"url\":\"https://t.co/FM2QmTv0aJ\"},\"zhuanfa\":\"\"}",
        "isNeedpush": 0,
        "lastUpdateDate": {
          "date": 6,
          "day": 5,
          "hours": 9,
          "minutes": 15,
          "month": 6,
          "seconds": 13,
          "time": 1530839713000,
          "timezoneOffset": -480,
          "year": 118
        },
        "pushStatus": 0,
        "relativeDate": "07-06 09:15",
        "status": 0,
        "subIntroduction": "【】{\"text\":\"Awesome to be supporting Choon and @garethemery ! Check out the epis ...",
        "sumCount": 48,
        "timeDate": "20180706",
        "timeDateStr": "2018年7月6日 星期五",
        "title": "",
        "url": "",
        "version": 1,
        "webName": ""
      }
    ],
    "nextPage": 2,
    "pageNo": 1,
    "pageSize": 15,
    "pagination": false,
    "prePage": 1,
    "total": false,
    "totalCount": 14660,
    "totalFieldName": "",
    "totalPage": 978
  },
  "success": true
}

