{"msg":"","obj":{"clazz":null,"firstPage":true,"firstResult":0,"footer":[],"lastPage":false,"list":[{"badNews":"","createDate":{"date":9,"day":1,"hours":17,"minutes":20,"month":6,"seconds":44,"time":1531128044000,"timezoneOffset":-480,"year":118},"gbtype":"","goodNews":"","id":54329,"introduction":"【何一：目前美金对人民币的汇率出错，正在修复】何一在币安官方电报群中宣布：“目前美金对人民币的汇率出错，已经在修了，很快就好，看美金就行。”","isNeedpush":0,"lastUpdateDate":{"date":9,"day":1,"hours":17,"minutes":20,"month":6,"seconds":44,"time":1531128044000,"timezoneOffset":-480,"year":118},"pushStatus":0,"relativeDate":"2 分钟前","status":0,"subIntroduction":"","sumCount":69,"timeDate":"20180709","timeDateStr":"2018年7月9日 今天 星期一","title":"","url":"","version":1,"webName":""},{"badNews":"","createDate":{"date":9,"day":1,"hours":17,"minutes":17,"month":6,"seconds":37,"time":1531127857000,"timezoneOffset":-480,"year":118},"gbtype":"","goodNews":"","id":54328,"introduction":"【区块链公司在美购地 欲打造数字货币城市】据内华达当地媒体报道，Bitcointopia公司过去4个月陆续购入当地土地，欲打造靠数字货币驱动的实验城市。据悉，该公司目前以0.5BTC/英亩的标价出售土地，另外还提供不同体积的集装箱改造房屋，售价为5-20BTC不等。据官网信息，将在城市内大力推广人工智能和区块链技术；另外，公司鼓励实验城市的“居民”积极参与当地服装行业、食品和科技行业建设，进一步加强当地比特币生态的搭建。","isNeedpush":1,"lastUpdateDate":{"date":9,"day":1,"hours":17,"minutes":17,"month":6,"seconds":37,"time":1531127857000,"timezoneOffset":-480,"year":118},"pushStatus":1,"relativeDate":"5 分钟前","status":0,"subIntroduction":"【】【区块链公司在美购地 欲打造数字货币城市】据内华达当地媒体报道，Bitcointopia公司过去4个月陆续购入当地土地，欲打造靠数字货币驱动的实验城市。据 ...","sumCount":69,"timeDate":"20180709","timeDateStr":"2018年7月9日 今天 星期一","title":"","url":"","version":1,"webName":""},{"badNews":"","createDate":{"date":9,"day":1,"hours":17,"minutes":4,"month":6,"seconds":23,"time":1531127063000,"timezoneOffset":-480,"year":118},"gbtype":"","goodNews":"","id":54323,"introduction":"【中国人民银行货币金银局局长：在中国，将央行数字货币用于零售支付可能更合理】7月7日-8日，“第五届金融科技外滩峰会”在上海召开。中国人民银行货币金银局局长王信表示，国际上很多人讨论央行数字货币（CBDC）应该用于零售支付还是批发支付，有的央行在考虑利用CBDC改善批发支付。在中国，将CBDC用于零售支付可能更合理。CBDC是央行发行的，是国家信用，而非现金支付涉及的电子货币只是商业银行信用，用CBDC支付更安全。从这个角度来说，CBDC还是很有吸引力的。","isNeedpush":1,"lastUpdateDate":{"date":9,"day":1,"hours":17,"minutes":4,"month":6,"seconds":23,"time":1531127063000,"timezoneOffset":-480,"year":118},"pushStatus":1,"relativeDate":"19 分钟前","status":0,"subIntroduction":"【】【中国人民银行货币金银局局长：在中国，将央行数字货币用于零售支付可能更合理】7月7日-8日，“第五届金融科技外滩峰会”在上海召开。中国人民银行货币金银局局 ...","sumCount":69,"timeDate":"20180709","timeDateStr":"2018年7月9日 今天 星期一","title":"","url":"","version":1,"webName":""},{"badNews":"","createDate":{"date":9,"day":1,"hours":16,"minutes":57,"month":6,"seconds":12,"time":1531126632000,"timezoneOffset":-480,"year":118},"gbtype":"","goodNews":"","id":54322,"introduction":"【CyberMiles基金会今日发布首个遗嘱智能协议CIP012】CyberMiles基金会今日发布基于电商公链CyberMiles（CMT）的首个遗嘱智能协议CIP（CyberMiles Improvement Proposal）012，该协议可以实现在链上自动管理数字遗产。通过CIP012协议，委托人去世后，其数字遗产将自动发放至继承人的账户，从而实现有史以来第一个数字资产遗嘱受托协议。关于如何确认委托人去世，CyberMiles首席科学家Michael Yuan博士表示方法很多，其中比较简单的方法就是遗嘱协议生成时间设定后，达到连续10年账号不再访问，协议即可被触发。","isNeedpush":0,"lastUpdateDate":{"date":9,"day":1,"hours":16,"minutes":57,"month":6,"seconds":12,"time":1531126632000,"timezoneOffset":-480,"year":118},"pushStatus":0,"relativeDate":"26 分钟前","status":0,"subIntroduction":"【】【CyberMiles基金会今日发布首个遗嘱智能协议CIP012】CyberMiles基金会今日发布基于电商公链CyberMiles（CMT）的首个遗嘱智 ...","sumCount":69,"timeDate":"20180709","timeDateStr":"2018年7月9日 今天 星期一","title":"","url":"","version":1,"webName":""},{"badNews":"","createDate":{"date":9,"day":1,"hours":16,"minutes":51,"month":6,"seconds":9,"time":1531126269000,"timezoneOffset":-480,"year":118},"gbtype":"","goodNews":"","id":54320,"introduction":"【平安保险聘用590名区块链科学家】据财华社报道，中国平安保险集团聘用了590名区块链科学家确保其交易平台安全简易运作。","isNeedpush":0,"lastUpdateDate":{"date":9,"day":1,"hours":16,"minutes":51,"month":6,"seconds":9,"time":1531126269000,"timezoneOffset":-480,"year":118},"pushStatus":0,"relativeDate":"32 分钟前","status":0,"subIntroduction":"","sumCount":69,"timeDate":"20180709","timeDateStr":"2018年7月9日 今天 星期一","title":"","url":"","version":1,"webName":""},{"badNews":"","createDate":{"date":9,"day":1,"hours":16,"minutes":50,"month":6,"seconds":6,"time":1531126206000,"timezoneOffset":-480,"year":118},"gbtype":"","goodNews":"","id":54319,"introduction":"【直布罗陀区块链交易所推出第三个托管ICO】据financemagnates消息，直布罗陀区块链交易所推出第三个托管ICO——一家提供分时度假服务的非营利性机构Crowdvilla。","isNeedpush":1,"lastUpdateDate":{"date":9,"day":1,"hours":16,"minutes":50,"month":6,"seconds":6,"time":1531126206000,"timezoneOffset":-480,"year":118},"pushStatus":1,"relativeDate":"33 分钟前","status":0,"subIntroduction":"【】【直布罗陀区块链交易所推出第三个托管ICO】据financemagnates消息，直布罗陀区块链交易所推出第三个托管ICO——一家提供分时度假服务的非营利 ...","sumCount":69,"timeDate":"20180709","timeDateStr":"2018年7月9日 今天 星期一","title":"","url":"","version":1,"webName":""},{"badNews":"","createDate":{"date":9,"day":1,"hours":16,"minutes":48,"month":6,"seconds":4,"time":1531126084000,"timezoneOffset":-480,"year":118},"gbtype":"","goodNews":"","id":54318,"introduction":"【X网正式筹备海外分站】据X网官方消息，X网开始正式筹备海外分站，其APP海外版将于本周上线，WEB海外版也将于近期上线。","isNeedpush":0,"lastUpdateDate":{"date":9,"day":1,"hours":16,"minutes":48,"month":6,"seconds":4,"time":1531126084000,"timezoneOffset":-480,"year":118},"pushStatus":0,"relativeDate":"35 分钟前","status":0,"subIntroduction":"","sumCount":69,"timeDate":"20180709","timeDateStr":"2018年7月9日 今天 星期一","title":"","url":"","version":1,"webName":""},{"badNews":"","createDate":{"date":9,"day":1,"hours":16,"minutes":33,"month":6,"seconds":46,"time":1531125226000,"timezoneOffset":-480,"year":118},"gbtype":"","goodNews":"","id":54317,"introduction":"【“无障碍艺途”与WECC达成合作  四千余幅画作上链登记及授权合作】据WECC(授权链)官方消息，WABC无障碍艺途与WECC已达成合作，由精神障碍和智力障碍人士创作的四千余幅画作将通过WECC登记上链。画作将以“以购代捐”的形式，通过WECC版权服务平台向公众开放授权，收入所得将捐助给精神障碍和智力障碍人士及其家庭。WABC曾在2017年联合腾讯公益、深圳市爱佑未来慈善基金会出品“小朋友画廊”互动公益项目，活动募集款超过1500万元。","isNeedpush":0,"lastUpdateDate":{"date":9,"day":1,"hours":16,"minutes":33,"month":6,"seconds":46,"time":1531125226000,"timezoneOffset":-480,"year":118},"pushStatus":0,"relativeDate":"1 小时前","status":0,"subIntroduction":"【】【“无障碍艺途”与WECC达成合作  四千余幅画作上链登记及授权合作】据WECC(授权链)官方消息，WABC无障碍艺途与WECC已达成合作，由精神障碍和智 ...","sumCount":69,"timeDate":"20180709","timeDateStr":"2018年7月9日 今天 星期一","title":"","url":"","version":1,"webName":""},{"badNews":"","createDate":{"date":9,"day":1,"hours":16,"minutes":29,"month":6,"seconds":42,"time":1531124982000,"timezoneOffset":-480,"year":118},"gbtype":"","goodNews":"","id":54316,"introduction":"【央行副行长潘功胜：用1到2年时间完成互联网金融风险专项整治，初步建立适应互联网金融特点的监管制度体系】人民银行副行长潘功胜指出，为贯彻落实党中央国务院决策部署，按照打好防范化解重大风险攻坚战总体安排，再用1到2年时间完成互联网金融风险专项整治，化解存量风险，消除风险隐患，同时初步建立适应互联网金融特点的监管制度体系。潘功胜强调，要加强监测预警，遏制增量风险，广泛开展投资者宣传教育。同步推进互联网金融监管长效机制建设，发挥互联网技术在提高金融资源配置效率和金融服务普惠性等方面的积极作用。","isNeedpush":1,"lastUpdateDate":{"date":9,"day":1,"hours":16,"minutes":29,"month":6,"seconds":42,"time":1531124982000,"timezoneOffset":-480,"year":118},"pushStatus":1,"relativeDate":"1 小时前","status":0,"subIntroduction":"【】【央行副行长潘功胜：用1到2年时间完成互联网金融风险专项整治，初步建立适应互联网金融特点的监管制度体系】人民银行副行长潘功胜指出，为贯彻落实党中央国务院决 ...","sumCount":69,"timeDate":"20180709","timeDateStr":"2018年7月9日 今天 星期一","title":"","url":"","version":1,"webName":""},{"badNews":"","createDate":{"date":9,"day":1,"hours":16,"minutes":23,"month":6,"seconds":38,"time":1531124618000,"timezoneOffset":-480,"year":118},"gbtype":"","goodNews":"","id":54310,"introduction":"【美国金融业管理局要求成员公司提供加密货币相关活动细节】据Coindesk消息，在近期发布的监管通知中，金融业监管局（FINRA）要求成员公司提供加密货币活动的细节以补充现有措施，以“确定其成员公司在这个新生领域的参与程度”。根据通知，FINRA需要了解的细节为：成员公司是否已经或将要进行包括从事加密货币交易、从客户那里接受它、管理一个汇集加密基金、参与代币销售、或提供任何与加密相关主题的建议等活动。需要指出的是，挖矿业务是FINRA的重要监视兴趣点。","isNeedpush":1,"lastUpdateDate":{"date":9,"day":1,"hours":16,"minutes":23,"month":6,"seconds":38,"time":1531124618000,"timezoneOffset":-480,"year":118},"pushStatus":1,"relativeDate":"1 小时前","status":0,"subIntroduction":"【】【美国金融业管理局要求成员公司提供加密货币相关活动细节】据Coindesk消息，在近期发布的监管通知中，金融业监管局（FINRA）要求成员公司提供加密货币 ...","sumCount":69,"timeDate":"20180709","timeDateStr":"2018年7月9日 今天 星期一","title":"","url":"","version":1,"webName":""},{"badNews":"","createDate":{"date":9,"day":1,"hours":16,"minutes":16,"month":6,"seconds":32,"time":1531124192000,"timezoneOffset":-480,"year":118},"gbtype":"","goodNews":"","id":54309,"introduction":"【印度国会议员指控执政党涉嫌利用数字货币洗钱】据Coinduck报道，印度国会议员Shaktisin Gohil指控Gujarat州的执政党通过数字货币的买卖进行洗钱活动，涉及金额预计高达7-120亿美元。据悉，目前相关方面正就该指控开展调查，在野党要求最高法院立即介入并确保调查顺利进行。","isNeedpush":0,"lastUpdateDate":{"date":9,"day":1,"hours":16,"minutes":16,"month":6,"seconds":32,"time":1531124192000,"timezoneOffset":-480,"year":118},"pushStatus":0,"relativeDate":"1 小时前","status":0,"subIntroduction":"【】【印度国会议员指控执政党涉嫌利用数字货币洗钱】据Coinduck报道，印度国会议员Shaktisin Gohil指控Gujarat州的执政党通过数字货币的 ...","sumCount":69,"timeDate":"20180709","timeDateStr":"2018年7月9日 今天 星期一","title":"","url":"","version":1,"webName":""},{"badNews":"","createDate":{"date":9,"day":1,"hours":16,"minutes":13,"month":6,"seconds":25,"time":1531124005000,"timezoneOffset":-480,"year":118},"gbtype":"","goodNews":"","id":54308,"introduction":"【InsurChain测试网络正式启动运行】InsurChain测试网络现已正式启动运行，区块链浏览器及测试链钱包也已开放，目前区块生成间隔为3秒钟，当前已生成107626个区块。","isNeedpush":0,"lastUpdateDate":{"date":9,"day":1,"hours":16,"minutes":13,"month":6,"seconds":25,"time":1531124005000,"timezoneOffset":-480,"year":118},"pushStatus":0,"relativeDate":"1 小时前","status":0,"subIntroduction":"【】【InsurChain测试网络正式启动运行】InsurChain测试网络现已正式启动运行，区块链浏览器及测试链钱包也已开放，目前区块生成间隔为3秒钟，当前 ...","sumCount":69,"timeDate":"20180709","timeDateStr":"2018年7月9日 今天 星期一","title":"","url":"","version":1,"webName":""},{"badNews":"","createDate":{"date":9,"day":1,"hours":16,"minutes":7,"month":6,"seconds":6,"time":1531123626000,"timezoneOffset":-480,"year":118},"gbtype":"","goodNews":"","id":54307,"introduction":"【ZB.com关于开启第二期投票上币ZB专业节点投票的公告】\r\n\r\nZB网 发布于 2018-07-09 15:42 内容以原文链接为准\r\n尊敬的ZB用户：\r\n\r\n       ZB.com第二期投票上币项目于7月9日12:00开始进入专业节点评审阶段，7月11日12:00截止节点投票。节点投票结束后，在专业节点环节中所得票数达到3票的项目将进入大众投票环节，7月11日14:00正式开启大众投票。\r\n\r\n       首期专业节点名单已公布，详细信息请见https://vip.zb.cn/vote/orgList。同时，ZB.com欢迎符合ZB专业节点申请条件的机构提交申请成为ZB专业节点，申请链接：https://vip.zb.cn/vote/outifitApply。\r\n\r\n       关于ZB专业节点的说明：https://vip.zb.cn/vote/node。\r\n\r\n\r\n\r\nZB Global Team\r\n\r\n2018年7月9日","isNeedpush":0,"lastUpdateDate":{"date":9,"day":1,"hours":16,"minutes":7,"month":6,"seconds":21,"time":1531123641000,"timezoneOffset":-480,"year":118},"pushStatus":0,"relativeDate":"1 小时前","status":0,"subIntroduction":"【】【ZB.com关于开启第二期投票上币ZB专业节点投票的公告】\r\n\r\nZB网 发布于 2018-07-09 15:42 内容以原文链接为准\r\n尊敬的ZB用户 ...","sumCount":69,"timeDate":"20180709","timeDateStr":"2018年7月9日 今天 星期一","title":"","url":"","version":1,"webName":""},{"badNews":"","createDate":{"date":9,"day":1,"hours":15,"minutes":53,"month":6,"seconds":10,"time":1531122790000,"timezoneOffset":-480,"year":118},"gbtype":"","goodNews":"","id":54306,"introduction":"【新西兰航空或将开发区块链技术预约管理系统】据CNETJapan消息，通过新西兰使馆得知，新西兰航空将采用一系列运用最新技术的设备提供服务，未来或将开发使用区块链技术的预约管理系统。据悉，新西兰航空公司于1940年成立，正在运航包括亚太在内的18个国家50个城市的直达航班。","isNeedpush":0,"lastUpdateDate":{"date":9,"day":1,"hours":15,"minutes":53,"month":6,"seconds":10,"time":1531122790000,"timezoneOffset":-480,"year":118},"pushStatus":0,"relativeDate":"1 小时前","status":0,"subIntroduction":"【】【新西兰航空或将开发区块链技术预约管理系统】据CNETJapan消息，通过新西兰使馆得知，新西兰航空将采用一系列运用最新技术的设备提供服务，未来或将开发使 ...","sumCount":69,"timeDate":"20180709","timeDateStr":"2018年7月9日 今天 星期一","title":"","url":"","version":1,"webName":""},{"badNews":"","createDate":{"date":9,"day":1,"hours":15,"minutes":51,"month":6,"seconds":8,"time":1531122668000,"timezoneOffset":-480,"year":118},"gbtype":"","goodNews":"","id":54305,"introduction":"【V神要求Twitter CEO处理加密货币垃圾邮件】据彭博消息，V神要求Twitter CEO处理加密货币垃圾邮件。","isNeedpush":0,"lastUpdateDate":{"date":9,"day":1,"hours":15,"minutes":51,"month":6,"seconds":8,"time":1531122668000,"timezoneOffset":-480,"year":118},"pushStatus":0,"relativeDate":"1 小时前","status":0,"subIntroduction":"","sumCount":69,"timeDate":"20180709","timeDateStr":"2018年7月9日 今天 星期一","title":"","url":"","version":1,"webName":""}],"nextPage":2,"pageNo":1,"pageSize":15,"pagination":false,"prePage":1,"total":false,"totalCount":20985,"totalFieldName":"","totalPage":1399},"success":true}