{
  "msg": "",
  "obj": {
    "clazz": null,
    "firstPage": false,
    "firstResult": 7275,
    "footer": [
      null
    ],
    "lastPage": false,
    "list": [
      {
        "badNews": "",
        "createDate": {
          "date": 17,
          "day": 4,
          "hours": 2,
          "minutes": 43,
          "month": 4,
          "seconds": 7,
          "time": 1526496187000,
          "timezoneOffset": -480,
          "year": 118
        },
        "gbtype": "",
        "goodNews": "",
        "id": 34315,
        "introduction": "{\"text\":\"Converting the world to #decentralized, frictionless currency one Bushwick coffee shop at a time. Totally respect s… https://t.co/zGRbe7mFEl<\\/a>\",\"date\":{\"date\":17,\"day\":4,\"hours\":2,\"minutes\":43,\"month\":4,\"seconds\":7,\"time\":1526496187000,\"timezoneOffset\":-480,\"year\":118},\"icon\":\"https://pbs.twimg.com/profile_images/968150222760132608/Dzi20Mri_normal.jpg\",\"favoriteCount\":2,\"retweetCount\":0,\"name\":\"Joseph Lubin\",\"screenName\":\"ethereumJoseph\",\"url\":\"https://t.co/zGRbe7mFEl\",\"yinyong\":\"\",\"zhuanfa\":\"\"}",
        "isNeedpush": 0,
        "lastUpdateDate": {
          "date": 17,
          "day": 4,
          "hours": 2,
          "minutes": 43,
          "month": 4,
          "seconds": 7,
          "time": 1526496187000,
          "timezoneOffset": -480,
          "year": 118
        },
        "pushStatus": 0,
        "relativeDate": "05-17 02:43",
        "status": 0,
        "subIntroduction": "【】{\"text\":\"Converting the world to #decentralized, frictionless currency one Bu ...",
        "sumCount": 161,
        "timeDate": "20180517",
        "timeDateStr": "2018年5月17日 星期四",
        "title": "",
        "url": "",
        "version": 1,
        "webName": ""
      },
      {
        "badNews": "",
        "createDate": {
          "date": 17,
          "day": 4,
          "hours": 2,
          "minutes": 36,
          "month": 4,
          "seconds": 47,
          "time": 1526495807000,
          "timezoneOffset": -480,
          "year": 118
        },
        "gbtype": "",
        "goodNews": "",
        "id": 34316,
        "introduction": "{\"text\":\"“We’re looking in to crypto currencies”\\n\\nTranslation: We are a big slow corporation & hear some hype. We have no un… https://t.co/k9F2bHUzzG<\\/a>\",\"date\":{\"date\":17,\"day\":4,\"hours\":2,\"minutes\":36,\"month\":4,\"seconds\":47,\"time\":1526495807000,\"timezoneOffset\":-480,\"year\":118},\"icon\":\"https://pbs.twimg.com/profile_images/963146788239638528/MPXNJxMz_normal.jpg\",\"favoriteCount\":30,\"retweetCount\":2,\"name\":\"Bruce\",\"screenName\":\"brucefenton\",\"url\":\"https://t.co/k9F2bHUzzG\",\"yinyong\":\"\",\"zhuanfa\":\"\"}",
        "isNeedpush": 0,
        "lastUpdateDate": {
          "date": 17,
          "day": 4,
          "hours": 2,
          "minutes": 36,
          "month": 4,
          "seconds": 47,
          "time": 1526495807000,
          "timezoneOffset": -480,
          "year": 118
        },
        "pushStatus": 0,
        "relativeDate": "05-17 02:36",
        "status": 0,
        "subIntroduction": "【】{\"text\":\"“We’re looking in to crypto currencies”\\n\\nTranslation: We are a big ...",
        "sumCount": 161,
        "timeDate": "20180517",
        "timeDateStr": "2018年5月17日 星期四",
        "title": "",
        "url": "",
        "version": 1,
        "webName": ""
      },
      {
        "badNews": "",
        "createDate": {
          "date": 17,
          "day": 4,
          "hours": 2,
          "minutes": 28,
          "month": 4,
          "seconds": 24,
          "time": 1526495304000,
          "timezoneOffset": -480,
          "year": 118
        },
        "gbtype": "",
        "goodNews": "",
        "id": 34310,
        "introduction": "{\"text\":\"I’m gonna arbitrage $USDT, $TUSD, and $USDC. https://t.co/j5Hu369LOn<\\/a>\",\"date\":{\"date\":17,\"day\":4,\"hours\":2,\"minutes\":28,\"month\":4,\"seconds\":24,\"time\":1526495304000,\"timezoneOffset\":-480,\"year\":118},\"icon\":\"https://pbs.twimg.com/profile_images/865954659084775424/2SRmI8-d_normal.jpg\",\"favoriteCount\":17,\"retweetCount\":0,\"name\":\"Charlie Shrem\",\"screenName\":\"CharlieShrem\",\"url\":\"https://t.co/j5Hu369LOn\",\"yinyong\":{\"text\":\"excited for the USDT:USDC trading pair on @BitMEXdotcom https://t.co/oTbNKfzzNK<\\/a>\",\"date\":{\"date\":17,\"day\":4,\"hours\":0,\"minutes\":46,\"month\":4,\"seconds\":25,\"time\":1526489185000,\"timezoneOffset\":-480,\"year\":118},\"icon\":\"https://pbs.twimg.com/profile_images/851698910594703360/E2ISvN7d_normal.jpg\",\"favoriteCount\":67,\"retweetCount\":7,\"name\":\"",
        "isNeedpush": 0,
        "lastUpdateDate": {
          "date": 17,
          "day": 4,
          "hours": 2,
          "minutes": 28,
          "month": 4,
          "seconds": 24,
          "time": 1526495304000,
          "timezoneOffset": -480,
          "year": 118
        },
        "pushStatus": 0,
        "relativeDate": "05-17 02:28",
        "status": 0,
        "subIntroduction": "【】{\"text\":\"I’m gonna arbitrage $USDT, $TUSD, and $USDC. https://t.co/oxEg360KYq<\\/a>\\n\\n#IOTA\",\"date\":{\"date\":17,\"day\":4,\"hours\":2,\"minutes\":27,\"month\":4,\"seconds\":20,\"time\":1526495240000,\"timezoneOffset\":-480,\"year\":118},\"icon\":\"https://pbs.twimg.com/profile_images/653770330943520768/XQ7L078W_normal.jpg\",\"favoriteCount\":0,\"retweetCount\":19,\"name\":\"David Sønstebø\",\"screenName\":\"DavidSonstebo\",\"url\":\"https://t.co/oxEg360KYq\",\"yinyong\":\"\",\"zhuanfa\":{\"text\":\"Welcome Dyrell Chapman to the IOTA Foundation\\n\\nhttps://t.co/oxEg360KYq<\\/a>\\n\\n#IOTA\",\"date\":{\"date\":17,\"day\":4,\"hours\":2,\"minutes\":25,\"month\":4,\"seconds\":3,\"time\":1526495103000,\"timezoneOffset\":-480,\"year\":118},\"icon\":\"https://pbs.twimg.com/profile_images/656580677375295488/ZTHQ9891_normal.png\",\"favoriteCount\":64,\"retweetCount\":19,\"name\":\"IOTA\",\"screenName\":\"iotatoken\",\"url\":\"https://t.co/oxEg360KYq\"}}",
        "isNeedpush": 0,
        "lastUpdateDate": {
          "date": 17,
          "day": 4,
          "hours": 2,
          "minutes": 27,
          "month": 4,
          "seconds": 20,
          "time": 1526495240000,
          "timezoneOffset": -480,
          "year": 118
        },
        "pushStatus": 0,
        "relativeDate": "05-17 02:27",
        "status": 0,
        "subIntroduction": "【】{\"text\":\"RT @iotatoken: Welcome Dyrell Chapman to the IOTA Foundation\\n\\nhttps://t.co/coxpjPtX2i<\\/a> which is a fake ICO website to educate. Basicall… https://t.co/vI5S27C47E<\\/a>\",\"date\":{\"date\":17,\"day\":4,\"hours\":2,\"minutes\":25,\"month\":4,\"seconds\":19,\"time\":1526495119000,\"timezoneOffset\":-480,\"year\":118},\"icon\":\"https://pbs.twimg.com/profile_images/865954659084775424/2SRmI8-d_normal.jpg\",\"favoriteCount\":72,\"retweetCount\":19,\"name\":\"Charlie Shrem\",\"screenName\":\"CharlieShrem\",\"url\":\"https://t.co/vI5S27C47E\",\"yinyong\":\"\",\"zhuanfa\":\"\"}",
        "isNeedpush": 0,
        "lastUpdateDate": {
          "date": 17,
          "day": 4,
          "hours": 2,
          "minutes": 25,
          "month": 4,
          "seconds": 19,
          "time": 1526495119000,
          "timezoneOffset": -480,
          "year": 118
        },
        "pushStatus": 0,
        "relativeDate": "05-17 02:25",
        "status": 0,
        "subIntroduction": "【】{\"text\":\"I have to applaud the US SEC for launching https://t.co/1OFCNVICBp<\\/a>\",\"date\":{\"date\":17,\"day\":4,\"hours\":2,\"minutes\":21,\"month\":4,\"seconds\":39,\"time\":1526494899000,\"timezoneOffset\":-480,\"year\":118},\"icon\":\"https://pbs.twimg.com/profile_images/875399204218126339/W3zmmuWz_normal.jpg\",\"favoriteCount\":5,\"retweetCount\":2,\"name\":\"CoinDesk\",\"screenName\":\"coindesk\",\"url\":\"https://t.co/1OFCNVICBp\",\"yinyong\":\"\",\"zhuanfa\":\"\"}",
        "isNeedpush": 0,
        "lastUpdateDate": {
          "date": 17,
          "day": 4,
          "hours": 2,
          "minutes": 21,
          "month": 4,
          "seconds": 39,
          "time": 1526494899000,
          "timezoneOffset": -480,
          "year": 118
        },
        "pushStatus": 0,
        "relativeDate": "05-17 02:21",
        "status": 0,
        "subIntroduction": "【】{\"text\":\"We’re live with @gogoSlava of Indiegogo. What do you want to ask? #C ...",
        "sumCount": 161,
        "timeDate": "20180517",
        "timeDateStr": "2018年5月17日 星期四",
        "title": "",
        "url": "",
        "version": 1,
        "webName": ""
      },
      {
        "badNews": "",
        "createDate": {
          "date": 17,
          "day": 4,
          "hours": 2,
          "minutes": 8,
          "month": 4,
          "seconds": 6,
          "time": 1526494086000,
          "timezoneOffset": -480,
          "year": 118
        },
        "gbtype": "",
        "goodNews": "",
        "id": 34307,
        "introduction": "{\"text\":\"Jack Dorsey Hopes Bitcoin Will Become The Web's 'Native Currency' https://t.co/BI34ilXDOo<\\/a> https://t.co/H7n4RkHT4d<\\/a>\",\"date\":{\"date\":17,\"day\":4,\"hours\":2,\"minutes\":8,\"month\":4,\"seconds\":6,\"time\":1526494086000,\"timezoneOffset\":-480,\"year\":118},\"icon\":\"https://pbs.twimg.com/profile_images/875399204218126339/W3zmmuWz_normal.jpg\",\"favoriteCount\":33,\"retweetCount\":18,\"name\":\"CoinDesk\",\"screenName\":\"coindesk\",\"url\":\"https://t.co/BI34ilXDOo\",\"mediaUrls\":\"http://pbs.twimg.com/media/DdVlj1mWsAIgweC.jpg\",\"yinyong\":\"\",\"zhuanfa\":\"\"}",
        "isNeedpush": 0,
        "lastUpdateDate": {
          "date": 17,
          "day": 4,
          "hours": 2,
          "minutes": 8,
          "month": 4,
          "seconds": 6,
          "time": 1526494086000,
          "timezoneOffset": -480,
          "year": 118
        },
        "pushStatus": 0,
        "relativeDate": "05-17 02:08",
        "status": 0,
        "subIntroduction": "【】{\"text\":\"Jack Dorsey Hopes Bitcoin Will Become The Web's 'Native Currency' https://t.co/uBVN6rro8j<\\/a>\",\"date\":{\"date\":17,\"day\":4,\"hours\":1,\"minutes\":46,\"month\":4,\"seconds\":48,\"time\":1526492808000,\"timezoneOffset\":-480,\"year\":118},\"icon\":\"https://pbs.twimg.com/profile_images/942304759561768960/Gel04P4M_normal.jpg\",\"favoriteCount\":6,\"retweetCount\":5,\"name\":\"CCN\",\"screenName\":\"CryptoCoinsNews\",\"url\":\"https://t.co/uBVN6rro8j\",\"yinyong\":\"\",\"zhuanfa\":\"\"}",
        "isNeedpush": 0,
        "lastUpdateDate": {
          "date": 17,
          "day": 4,
          "hours": 1,
          "minutes": 46,
          "month": 4,
          "seconds": 48,
          "time": 1526492808000,
          "timezoneOffset": -480,
          "year": 118
        },
        "pushStatus": 0,
        "relativeDate": "05-17 01:46",
        "status": 0,
        "subIntroduction": "【】{\"text\":\"Cryptocurrency Exchange Kraken Will “Probably” Pursue SEC Registrati ...",
        "sumCount": 161,
        "timeDate": "20180517",
        "timeDateStr": "2018年5月17日 星期四",
        "title": "",
        "url": "",
        "version": 1,
        "webName": ""
      },
      {
        "badNews": "",
        "createDate": {
          "date": 17,
          "day": 4,
          "hours": 1,
          "minutes": 38,
          "month": 4,
          "seconds": 26,
          "time": 1526492306000,
          "timezoneOffset": -480,
          "year": 118
        },
        "gbtype": "",
        "goodNews": "",
        "id": 34303,
        "introduction": "{\"text\":\"'Internet of Blockchains' Project Polkadot Gets First Proof-of-Concept https://t.co/gbid0SNzjG<\\/a> https://t.co/RRw4CC2kbb<\\/a>\",\"date\":{\"date\":17,\"day\":4,\"hours\":1,\"minutes\":38,\"month\":4,\"seconds\":26,\"time\":1526492306000,\"timezoneOffset\":-480,\"year\":118},\"icon\":\"https://pbs.twimg.com/profile_images/875399204218126339/W3zmmuWz_normal.jpg\",\"favoriteCount\":13,\"retweetCount\":11,\"name\":\"CoinDesk\",\"screenName\":\"coindesk\",\"url\":\"https://t.co/gbid0SNzjG\",\"mediaUrls\":\"http://pbs.twimg.com/media/DdVexa0WAAE8020.jpg\",\"yinyong\":\"\",\"zhuanfa\":\"\"}",
        "isNeedpush": 0,
        "lastUpdateDate": {
          "date": 17,
          "day": 4,
          "hours": 1,
          "minutes": 38,
          "month": 4,
          "seconds": 26,
          "time": 1526492306000,
          "timezoneOffset": -480,
          "year": 118
        },
        "pushStatus": 0,
        "relativeDate": "05-17 01:38",
        "status": 0,
        "subIntroduction": "【】{\"text\":\"'Internet of Blockchains' Project Polkadot Gets First Proof-of-Conce ...",
        "sumCount": 161,
        "timeDate": "20180517",
        "timeDateStr": "2018年5月17日 星期四",
        "title": "",
        "url": "",
        "version": 1,
        "webName": ""
      },
      {
        "badNews": "",
        "createDate": {
          "date": 17,
          "day": 4,
          "hours": 1,
          "minutes": 30,
          "month": 4,
          "seconds": 6,
          "time": 1526491806000,
          "timezoneOffset": -480,
          "year": 118
        },
        "gbtype": "",
        "goodNews": "",
        "id": 34301,
        "introduction": "{\"text\":\"Bitcoin Q&A: Nonces, mining, and quantum computing https://t.co/CDy4BcDI9T<\\/a>\",\"date\":{\"date\":17,\"day\":4,\"hours\":1,\"minutes\":30,\"month\":4,\"seconds\":6,\"time\":1526491806000,\"timezoneOffset\":-480,\"year\":118},\"icon\":\"https://pbs.twimg.com/profile_images/570063561603289088/CfuQCX0Y_normal.png\",\"favoriteCount\":12,\"retweetCount\":5,\"name\":\"Andreas M. Antonopoulos\",\"screenName\":\"aantonop\",\"url\":\"https://t.co/CDy4BcDI9T\",\"yinyong\":\"\",\"zhuanfa\":\"\"}",
        "isNeedpush": 0,
        "lastUpdateDate": {
          "date": 17,
          "day": 4,
          "hours": 1,
          "minutes": 30,
          "month": 4,
          "seconds": 6,
          "time": 1526491806000,
          "timezoneOffset": -480,
          "year": 118
        },
        "pushStatus": 0,
        "relativeDate": "05-17 01:30",
        "status": 0,
        "subIntroduction": "【】{\"text\":\"Bitcoin Q&A: Nonces, mining, and quantum computing https://t.co/ePRE8iV6hI<\\/a> https://t.co/3OGkAEZlad<\\/a>\",\"date\":{\"date\":17,\"day\":4,\"hours\":1,\"minutes\":18,\"month\":4,\"seconds\":54,\"time\":1526491134000,\"timezoneOffset\":-480,\"year\":118},\"icon\":\"https://pbs.twimg.com/profile_images/875399204218126339/W3zmmuWz_normal.jpg\",\"favoriteCount\":29,\"retweetCount\":26,\"name\":\"CoinDesk\",\"screenName\":\"coindesk\",\"url\":\"https://t.co/ePRE8iV6hI\",\"mediaUrls\":\"http://pbs.twimg.com/media/DdVaTQEXkAEUTTd.jpg\",\"yinyong\":\"\",\"zhuanfa\":\"\"}",
        "isNeedpush": 0,
        "lastUpdateDate": {
          "date": 17,
          "day": 4,
          "hours": 1,
          "minutes": 18,
          "month": 4,
          "seconds": 54,
          "time": 1526491134000,
          "timezoneOffset": -480,
          "year": 118
        },
        "pushStatus": 0,
        "relativeDate": "05-17 01:18",
        "status": 0,
        "subIntroduction": "【】{\"text\":\"The SEC Just Launched a Fake ICO Website to Educate Investors https://t.co/aIaCgkRSeS<\\/a>\",\"date\":{\"date\":17,\"day\":4,\"hours\":1,\"minutes\":8,\"month\":4,\"seconds\":6,\"time\":1526490486000,\"timezoneOffset\":-480,\"year\":118},\"icon\":\"https://pbs.twimg.com/profile_images/970038798821322755/wq58vtLd_normal.jpg\",\"favoriteCount\":6,\"retweetCount\":7,\"name\":\"Marc Hochstein\",\"screenName\":\"MarcHochstein\",\"url\":\"https://t.co/aIaCgkRSeS\"}}",
        "isNeedpush": 0,
        "lastUpdateDate": {
          "date": 17,
          "day": 4,
          "hours": 1,
          "minutes": 8,
          "month": 4,
          "seconds": 40,
          "time": 1526490520000,
          "timezoneOffset": -480,
          "year": 118
        },
        "pushStatus": 0,
        "relativeDate": "05-17 01:08",
        "status": 0,
        "subIntroduction": "【】{\"text\":\"RT @MarcHochstein: R.I.P. Tom Wolfe. Wonder what he would have made ...",
        "sumCount": 161,
        "timeDate": "20180517",
        "timeDateStr": "2018年5月17日 星期四",
        "title": "",
        "url": "",
        "version": 1,
        "webName": ""
      },
      {
        "badNews": "",
        "createDate": {
          "date": 17,
          "day": 4,
          "hours": 1,
          "minutes": 6,
          "month": 4,
          "seconds": 6,
          "time": 1526490366000,
          "timezoneOffset": -480,
          "year": 118
        },
        "gbtype": "",
        "goodNews": "",
        "id": 34292,
        "introduction": "{\"text\":\"RT @AnnalieseMilano: .@jack:\\\"We need to have the space to evolve our thinking and the way we evolve our approaches. To do that in public is…\",\"date\":{\"date\":17,\"day\":4,\"hours\":1,\"minutes\":6,\"month\":4,\"seconds\":6,\"time\":1526490366000,\"timezoneOffset\":-480,\"year\":118},\"icon\":\"https://pbs.twimg.com/profile_images/875399204218126339/W3zmmuWz_normal.jpg\",\"favoriteCount\":0,\"retweetCount\":6,\"name\":\"CoinDesk\",\"screenName\":\"coindesk\",\"yinyong\":\"\",\"zhuanfa\":{\"text\":\".@jack:\\\"We need to have the space to evolve our thinking and the way we evolve our approaches. To do that in public… https://t.co/HbLvFDALaz<\\/a>\",\"date\":{\"date\":17,\"day\":4,\"hours\":0,\"minutes\":35,\"month\":4,\"seconds\":28,\"time\":1526488528000,\"timezoneOffset\":-480,\"year\":118},\"icon\":\"https://pbs.twimg.com/profile_images/986025228882063362/Vf9i9ixm_normal.jpg\",\"favoriteCount\":9,\"retweetCount\":6,\"name\":\"Annaliese Milano\",\"screenName\":\"AnnalieseMilano\",\"url\":\"https://t.co/HbLvFDALaz\"}}",
        "isNeedpush": 0,
        "lastUpdateDate": {
          "date": 17,
          "day": 4,
          "hours": 1,
          "minutes": 6,
          "month": 4,
          "seconds": 6,
          "time": 1526490366000,
          "timezoneOffset": -480,
          "year": 118
        },
        "pushStatus": 0,
        "relativeDate": "05-17 01:06",
        "status": 0,
        "subIntroduction": "【】{\"text\":\"RT @AnnalieseMilano: .@jack:\\\"We need to have the space to evolve ou ...",
        "sumCount": 161,
        "timeDate": "20180517",
        "timeDateStr": "2018年5月17日 星期四",
        "title": "",
        "url": "",
        "version": 1,
        "webName": ""
      },
      {
        "badNews": "",
        "createDate": {
          "date": 17,
          "day": 4,
          "hours": 1,
          "minutes": 6,
          "month": 4,
          "seconds": 1,
          "time": 1526490361000,
          "timezoneOffset": -480,
          "year": 118
        },
        "gbtype": "",
        "goodNews": "",
        "id": 34293,
        "introduction": "{\"text\":\"RT @MarcHochstein: \\\"We're living in a time where people are afraid to express an opinion for fear that that opinion dictates their entire l…\",\"date\":{\"date\":17,\"day\":4,\"hours\":1,\"minutes\":6,\"month\":4,\"seconds\":1,\"time\":1526490361000,\"timezoneOffset\":-480,\"year\":118},\"icon\":\"https://pbs.twimg.com/profile_images/875399204218126339/W3zmmuWz_normal.jpg\",\"favoriteCount\":0,\"retweetCount\":5,\"name\":\"CoinDesk\",\"screenName\":\"coindesk\",\"yinyong\":\"\",\"zhuanfa\":{\"text\":\"\\\"We're living in a time where people are afraid to express an opinion for fear that that opinion dictates their ent… https://t.co/CbjAtTWwXF<\\/a>\",\"date\":{\"date\":17,\"day\":4,\"hours\":0,\"minutes\":35,\"month\":4,\"seconds\":48,\"time\":1526488548000,\"timezoneOffset\":-480,\"year\":118},\"icon\":\"https://pbs.twimg.com/profile_images/970038798821322755/wq58vtLd_normal.jpg\",\"favoriteCount\":9,\"retweetCount\":5,\"name\":\"Marc Hochstein\",\"screenName\":\"MarcHochstein\",\"url\":\"https://t.co/CbjAtTWwXF\"}}",
        "isNeedpush": 0,
        "lastUpdateDate": {
          "date": 17,
          "day": 4,
          "hours": 1,
          "minutes": 6,
          "month": 4,
          "seconds": 1,
          "time": 1526490361000,
          "timezoneOffset": -480,
          "year": 118
        },
        "pushStatus": 0,
        "relativeDate": "05-17 01:06",
        "status": 0,
        "subIntroduction": "【】{\"text\":\"RT @MarcHochstein: \\\"We're living in a time where people are afraid ...",
        "sumCount": 161,
        "timeDate": "20180517",
        "timeDateStr": "2018年5月17日 星期四",
        "title": "",
        "url": "",
        "version": 1,
        "webName": ""
      },
      {
        "badNews": "",
        "createDate": {
          "date": 17,
          "day": 4,
          "hours": 1,
          "minutes": 2,
          "month": 4,
          "seconds": 52,
          "time": 1526490172000,
          "timezoneOffset": -480,
          "year": 118
        },
        "gbtype": "",
        "goodNews": "",
        "id": 34287,
        "introduction": "{\"text\":\"JUST IN: 'Internet of Blockchains' Project Polkadot Launches First Proof-of-Concept https://t.co/BU9YfjuWBP<\\/a>\",\"date\":{\"date\":17,\"day\":4,\"hours\":1,\"minutes\":2,\"month\":4,\"seconds\":52,\"time\":1526490172000,\"timezoneOffset\":-480,\"year\":118},\"icon\":\"https://pbs.twimg.com/profile_images/875399204218126339/W3zmmuWz_normal.jpg\",\"favoriteCount\":0,\"retweetCount\":2,\"name\":\"CoinDesk\",\"screenName\":\"coindesk\",\"url\":\"https://t.co/BU9YfjuWBP\",\"yinyong\":\"\",\"zhuanfa\":\"\"}",
        "isNeedpush": 0,
        "lastUpdateDate": {
          "date": 17,
          "day": 4,
          "hours": 1,
          "minutes": 2,
          "month": 4,
          "seconds": 52,
          "time": 1526490172000,
          "timezoneOffset": -480,
          "year": 118
        },
        "pushStatus": 0,
        "relativeDate": "05-17 01:02",
        "status": 0,
        "subIntroduction": "【】{\"text\":\"JUST IN: 'Internet of Blockchains' Project Polkadot Launches First P ...",
        "sumCount": 161,
        "timeDate": "20180517",
        "timeDateStr": "2018年5月17日 星期四",
        "title": "",
        "url": "",
        "version": 1,
        "webName": ""
      }
    ],
    "nextPage": 487,
    "pageNo": 486,
    "pageSize": 15,
    "pagination": false,
    "prePage": 485,
    "total": false,
    "totalCount": 14660,
    "totalFieldName": "",
    "totalPage": 978
  },
  "success": true
}